{
    "window.zoomLevel": -1,
    "cSpell.userWords": [
        "byteorder",
        "chrono",
        "condvar",
        "escande",
        "gitlab",
        "repr",
        "zerocopy"
    ],
    "editor.fontWeight": "400",
    "editor.fontSize": 15,
    "editor.fontFamily": "FiraCode Nerd Font", 
    "editor.fontLigatures": true,
    "editor.tokenColorCustomizations": {
        "textMateRules": [
            {
                "scope": "markup.other.logcat.verbose",
                "settings": {
                    "foreground": "#BBBBBB"
                }
            },
            {
                "scope": "markup.quote.logcat.info",
                "settings": {
                    "foreground": "#58d68d"
                }
            },
            {
                "scope": "markup.changed.logcat.debug",
                "settings": {
                    "foreground": "#23AAFF"
                }
            },
            {
                "scope": "markup.inserted.logcat.warning",
                "settings": {
                    "foreground": "#F0ED00"
                }
            },
            {
                "scope": "markup.deleted.logcat.error",
                "settings": {
                    "foreground": "#FF6B68"
                }
            },
            {
                "scope": "markup.deleted.logcat.assert",
                "settings": {
                    "foreground": "#FF6B68",
                    "fontStyle": "underline"
                }
            },
            {
                "scope": "entity.tag.logcat",
                "settings": {
                    "foreground": "#c78ce0",
                    // "foreground": "#8e44ad",
                    "fontStyle": "italic",
                }
            }
        ]
    },
    "files.associations": {
        "*.txt" : "logcat",
        "*.logcat" : "logcat",
        "main_log*" : "logcat"
    },
    "diffEditor.ignoreTrimWhitespace": false,
    "editor.minimap.enabled": false
    
}